{
    "KPackageStructure": "Plasma/Applet",
    "KPlugin": {
        "Authors": [
            {
                "Email": "kde@privat.broulik.de",
                "Name": "Kai Uwe Broulik",
                "Name[ar]": "Kai Uwe Broulik",
                "Name[az]": "Kai Uwe Broulik",
                "Name[bg]": "Kai Uwe Broulik",
                "Name[ca@valencia]": "Kai Uwe Broulik",
                "Name[ca]": "Kai Uwe Broulik",
                "Name[cs]": "Kai Uwe Broulik",
                "Name[de]": "Kai Uwe Broulik",
                "Name[en_GB]": "Kai Uwe Broulik",
                "Name[eo]": "Kai Uwe Broulik",
                "Name[es]": "Kai Uwe Broulik",
                "Name[eu]": "Kai Uwe Broulik",
                "Name[fi]": "Kai Uwe Broulik",
                "Name[fr]": "Kai Uwe Broulik",
                "Name[gl]": "Kai Uwe Broulik",
                "Name[he]": "קאי אווה ברוליק",
                "Name[hu]": "Kai Uwe Broulik",
                "Name[ia]": "Kai Uwe Broulik",
                "Name[id]": "Kai Uwe Broulik",
                "Name[is]": "Kai Uwe Broulik",
                "Name[it]": "Kai Uwe Broulik",
                "Name[ja]": "Kai Uwe Broulik",
                "Name[ka]": "კაი უვე ბროულიკი",
                "Name[ko]": "Kai Uwe Broulik",
                "Name[lt]": "Kai Uwe Broulik",
                "Name[lv]": "Kai Uwe Broulik",
                "Name[nl]": "Kai Uwe Broulik",
                "Name[nn]": "Kai Uwe Broulik",
                "Name[pl]": "Kai Uwe Broulik",
                "Name[pt]": "Kai Uwe Broulik",
                "Name[pt_BR]": "Kai Uwe Broulik",
                "Name[ro]": "Kai Uwe Broulik",
                "Name[ru]": "Kai Uwe Broulik",
                "Name[sk]": "Kai Uwe Broulik",
                "Name[sl]": "Kai Uwe Broulik",
                "Name[sv]": "Kai Uwe Broulik",
                "Name[tr]": "Kai Uwe Broulik",
                "Name[uk]": "Kai Uwe Broulik",
                "Name[vi]": "Kai Uwe Broulik",
                "Name[x-test]": "xxKai Uwe Broulikxx",
                "Name[zh_CN]": "Kai Uwe Broulik",
                "Name[zh_TW]": "Kai Uwe Broulik"
            }
        ],
        "Category": "System Information",
        "Description": "Quickly switch between different users",
        "Description[ar]": "بدل بسرعة بين المستخدمين",
        "Description[az]": "Müxtəlif istifadəçilər arasında sürətli keçid",
        "Description[bg]": "Бързо превключване между различни потребители",
        "Description[ca@valencia]": "Canvia ràpidament entre diferents usuaris",
        "Description[ca]": "Commuta ràpidament entre diferents usuaris",
        "Description[cs]": "Rychlé přepínání mezi různými uživateli",
        "Description[de]": "Schnell zwischen verschiedenen Benutzern wechseln",
        "Description[en_GB]": "Quickly switch between different users",
        "Description[eo]": "Rapide ŝanĝi inter malsamaj uzantoj",
        "Description[es]": "Cambio rápido entre distintos usuarios",
        "Description[eu]": "Erabiltzaile ezberdinen artean azkar aldatu",
        "Description[fi]": "Vaihda nopeasti käyttäjätunnukselta toiselle",
        "Description[fr]": "Basculer rapidement entre différents utilisateurs",
        "Description[gl]": "Cambia rapidamente de usuario.",
        "Description[he]": "מעבר מהיר בין משתמשים שונים",
        "Description[hu]": "Gyors váltás különböző felhasználók között",
        "Description[ia]": "Rapide commutation inter usatores differente",
        "Description[id]": "Beralih selekasnya antara pengguna yang berbeda",
        "Description[is]": "Skiptu snöggt á milli mismunandi notenda ",
        "Description[it]": "Passa rapidamente tra i diversi utenti",
        "Description[ja]": "他のユーザに素早く切り替え",
        "Description[ka]": "სწრაფად გადაერთეთ სხვადასხვა მომხმარებლებს შორის",
        "Description[ko]": "사용자를 빠르게 전환",
        "Description[lt]": "Greitai persijungti tarp skirtingų sistemos naudotojų",
        "Description[lv]": "Ātra pārslēgšanās starp dažādiem lietotājiem",
        "Description[nl]": "Snel wisselen tussen verschillende gebruikers",
        "Description[nn]": "Byt kjapt mellom ulike brukarar",
        "Description[pl]": "Przełącza między użytkownikami",
        "Description[pt]": "Mudar rapidamente entre os diferentes utilizadores",
        "Description[pt_BR]": "Alterna rapidamente entre os usuários",
        "Description[ro]": "Schimbă rapid între diferiți utilizatori",
        "Description[ru]": "Быстрое переключение между пользователями",
        "Description[sk]": "Rýchlo prepínajte medzi rôznymi používateľmi",
        "Description[sl]": "Hitro preklapljaj med različnimi uporabniki",
        "Description[sv]": "Byt snabbt mellan olika användare",
        "Description[tr]": "Farklı kullanıcılar arasında tez geçiş yap",
        "Description[uk]": "Швидке перемикання між записами користувачів",
        "Description[vi]": "Chuyển nhanh giữa những người dùng khác nhau",
        "Description[x-test]": "xxQuickly switch between different usersxx",
        "Description[zh_CN]": "在不同用户之间快速切换",
        "Description[zh_TW]": "快速的在不同使用者間切換",
        "Icon": "preferences-desktop-user",
        "Id": "org.kde.plasma.userswitcher",
        "License": "GPL-2.0+",
        "Name": "User Switcher",
        "Name[ar]": "مبدل المستخدم",
        "Name[az]": "İstifadəçi dəyişdiricisi",
        "Name[bg]": "Превключване на потребители",
        "Name[ca@valencia]": "Commutador d'usuaris",
        "Name[ca]": "Commutador d'usuaris",
        "Name[cs]": "Přepínání uživatelů",
        "Name[de]": "Benutzerwechsel",
        "Name[en_GB]": "User Switcher",
        "Name[eo]": "Uzanto Ŝaltilo",
        "Name[es]": "Selector de usuario",
        "Name[eu]": "Erabiltzaile-trukatzailea",
        "Name[fi]": "Käyttäjävaihto",
        "Name[fr]": "Commutateur d'utilisateurs",
        "Name[gl]": "Selector de usuario",
        "Name[he]": "מחליף משתמשים",
        "Name[hu]": "Felhasználóváltó",
        "Name[ia]": "Commutator de usator",
        "Name[id]": "Pengalih Pengguna",
        "Name[is]": "Skipt um notanda",
        "Name[it]": "Cambia utente",
        "Name[ja]": "ユーザスイッチャー",
        "Name[ka]": "მომხმარებლის გადამრთველი",
        "Name[ko]": "사용자 전환기",
        "Name[lt]": "Naudotojų perjungiklis",
        "Name[lv]": "Lietotāju pārslēdzējs",
        "Name[nl]": "Wisselen van gebruiker",
        "Name[nn]": "Brukar­bytar",
        "Name[pl]": "Przełącznik użytkowników",
        "Name[pt]": "Selector de Utilizadores",
        "Name[pt_BR]": "Seletor de usuário",
        "Name[ro]": "Comutator de utilizatori",
        "Name[ru]": "Переключатель пользователей",
        "Name[sk]": "Prepínač používateľov",
        "Name[sl]": "Preklopnik uporabnikov",
        "Name[sv]": "Användarbytare",
        "Name[tr]": "Kullanıcı Değiştiricisi",
        "Name[uk]": "Перемикання користувачів",
        "Name[vi]": "Trình chuyển người dùng",
        "Name[x-test]": "xxUser Switcherxx",
        "Name[zh_CN]": "用户切换器",
        "Name[zh_TW]": "使用者切換",
        "Website": "https://kde.org/plasma-desktop"
    },
    "X-Plasma-API-Minimum-Version": "6.0"
}
